Seg.,consonantal,sonorant,approximant,voice,spread_glottis,continuant,nasal,lateral,labial,labiodental,coronal,dorsal,high,low,front,back,long,round
Seg.,cons,son,approx,voice,spread,cont,nas,lat,LAB,labdent,COR,DOR,high,low,front,back,long,rnd
b,1,0,0,1,0,0,,0,1,0,0,,,,,,,
d,1,0,0,1,0,0,,0,,,1,,,,,,,
ɡ,1,0,0,1,0,0,,0,,,0,1,1,0,,1,,
m,1,1,0,1,0,0,1,0,1,0,0,,,,,,,
n,1,1,0,1,0,0,1,0,0,0,1,,,,,,,
l,1,1,1,1,0,1,,1,0,0,1,,,,,,,
r,1,1,1,1,0,1,,0,0,0,1,,,,,,,
z,1,0,0,1,0,1,,0,0,0,1,,,,,,,
p,1,0,0,0,0,0,,0,1,0,0,,,,,,,
pʰ,1,0,0,0,1,0,,0,1,0,0,,,,,,,
f,1,0,0,0,0,1,,0,1,1,0,,,,,,,
t,1,0,0,0,0,0,,0,,,1,,,,,,,
tʰ,1,0,0,0,1,0,,0,,,1,,,,,,,
s,1,0,0,0,0,1,,0,,,1,,,,,,,
k,1,0,0,0,0,0,,0,,,0,1,1,0,,1,,
kʰ,1,0,0,0,1,0,,0,,,0,1,1,0,,1,,
h,1,0,0,0,1,1,,0,,,0,,,,,,,
j,0,1,1,1,0,1,,0,,,0,1,1,0,,0,,
w,0,1,1,1,0,1,,0,1,0,0,1,1,0,,1,,
a,0,1,,,,,,,,,,1,0,1,0,1,0,0
aː,0,1,,,,,,,,,,1,0,1,0,1,1,0
e,0,1,,,,,,,,,,1,0,0,1,0,0,0
eː,0,1,,,,,,,,,,1,0,0,1,0,1,0
i,0,1,,,,,,,,,,1,1,0,1,0,0,0
iː,0,1,,,,,,,,,,1,1,0,1,0,1,0
o,0,1,,,,,,,,,,1,0,0,0,1,0,1
oː,0,1,,,,,,,,,,1,0,0,0,1,1,1
u,0,1,,,,,,,,,,1,1,0,0,1,0,1
uː,0,1,,,,,,,,,,1,1,0,0,1,1,1
y,0,1,,,,,,,,,,1,1,0,1,0,0,1
yː,0,1,,,,,,,,,,1,1,0,1,0,1,1
