Seg.,value,TopScale,MidScale,BotScale,segmental,syllabic,stress,long,consonantal,sonorant,continuant,delayed release,approximant,nasal,voice,spread gl,constr gl,LABIAL,round,CORONAL,anterior,distributed,strident,lateral,DORSAL,high,low,front,back,tense
˥,High,1,0,0,0,,,,,,,,,,,,,,,,,,,,,,,,,
˦,Mid,1,1,0,0,,,,,,,,,,,,,,,,,,,,,,,,,
˧,low-mid,0,1,1,0,,,,,,,,,,,,,,,,,,,,,,,,,
˨,low,0,0,1,0,,,,,,,,,,,,,,,,,,,,,,,,,
n,alveolar nasal,,,,1,0,0,0,1,1,0,,0,1,1,0,0,0,0,1,1,0,0,0,0,,,,,
ʔ,glottal plosive,,,,1,0,0,0,1,0,0,0,0,0,0,0,1,0,0,0,,,,0,0,,,,,
ʔʷ,"glottal plosive, labialized",,,,1,0,0,0,1,0,0,0,0,0,0,0,1,1,1,0,,,,0,0,,,,,
ʔː,"glottal plosive, long",,,,1,0,0,1,1,0,0,0,0,0,0,0,1,0,0,0,,,,0,0,,,,,
ʔʲ,"glottal plosive, palatalized",,,,1,0,0,0,1,0,0,0,0,0,0,0,1,0,0,0,,,,0,1,1,0,1,0,
ʔⁿ,nasalized ʔ,,,,1,0,0,0,1,0,0,0,0,1,1,0,1,0,0,0,,,,0,0,,,,,
d,vd alveolar plosive,,,,1,0,0,0,1,0,0,0,0,0,1,0,0,0,0,1,1,0,0,0,0,,,,,
ɲ,vd palatal nasal,,,,1,0,0,0,1,1,0,,0,1,1,0,0,0,0,1,0,1,0,0,1,1,0,1,0,
ɟ,vd palatal plosive,,,,1,0,0,0,1,0,0,0,0,0,1,0,0,0,0,1,0,1,0,0,1,1,0,1,0,
ɡ,vd velar plosive,,,,1,0,0,0,1,0,0,0,0,0,1,0,0,0,0,0,,,,0,1,1,0,0,0,
ɡʷ,"vd velar plosive, labialized",,,,1,0,0,0,1,0,0,0,0,0,1,0,0,1,1,0,,,,0,1,1,0,0,0,
ʦ,vl alveolar affricate,,,,1,0,0,0,1,0,0,1,0,0,0,0,0,0,0,1,1,0,1,0,0,,,,,
t,vl alveolar plosive,,,,1,0,0,0,1,0,0,0,0,0,0,0,0,0,0,1,1,0,0,0,0,,,,,
c,vl palatal plosive,,,,1,0,0,0,1,0,0,0,0,0,0,0,0,0,0,1,0,1,0,0,1,1,0,1,0,
ʧ,vl postalveolar affricate,,,,1,0,0,0,1,0,0,1,0,0,0,0,0,0,0,1,0,1,1,0,0,,,,,
k,vl velar plosive,,,,1,0,0,0,1,0,0,0,0,0,0,0,0,0,0,0,,,,0,1,1,0,0,0,
kʷ,"vl velar plosive, labialized",,,,1,0,0,0,1,0,0,0,0,0,0,0,0,1,1,0,,,,0,1,1,0,0,0,
l,alveolar lateral approximant,,,,1,0,0,0,1,1,1,,1,0,1,0,0,0,0,1,1,0,0,1,0,,,,,
z,vd alveolar fricative,,,,1,0,0,0,1,0,1,1,0,0,1,0,0,0,0,1,1,0,1,0,0,,,,,
ð,vd dental fricative,,,,1,0,0,0,1,0,1,1,0,0,1,0,0,0,0,1,1,1,0,0,0,,,,,
ʎ,vd palatal lateral,,,,1,0,0,0,1,1,1,,1,0,1,0,0,0,0,1,0,1,0,1,1,1,0,1,0,
s,vl alveolar fricative,,,,1,0,0,0,1,0,1,1,0,0,0,0,0,0,0,1,1,0,1,0,0,,,,,
ʃ,vl postalveolar fricative,,,,1,0,0,0,1,0,1,1,0,0,0,0,0,0,0,1,0,1,1,0,0,,,,,
j,vd palatal approximant,,,,1,0,0,0,0,1,1,,1,0,1,0,0,0,0,0,,,,0,1,1,0,1,0,1
h,vl glottal fricative,,,,1,0,0,0,0,0,1,1,0,0,0,1,0,0,0,0,,,,0,0,,,,,
hʷ,"vl glottal fricative, labialized",,,,1,0,0,0,0,0,1,1,0,0,0,1,0,1,1,0,,,,0,0,,,,,
hʲ,"vl glottal fricative, palatalized",,,,1,0,0,0,0,0,1,1,0,0,0,1,0,0,0,0,,,,0,1,1,0,1,0,
w,voiced labial-velar approximant,,,,1,0,0,0,0,1,1,,1,0,1,0,0,1,1,0,,,,0,1,1,0,0,1,1
ṇː,long syllabic n,,,,1,1,0,1,1,1,0,,0,1,1,0,0,0,0,1,1,0,0,0,0,,,,,
ṃ,syllabic m,,,,1,1,0,0,1,1,0,,0,1,1,0,0,1,0,0,,,,0,0,,,,,
ṇ,syllabic n,,,,1,1,0,0,1,1,0,,0,1,1,0,0,0,0,1,1,0,0,0,0,,,,,
u,back close rounded,,,,1,1,1,0,0,1,1,,1,0,1,,,1,1,,,,,,1,1,0,0,1,1
uː,"back close rounded, long",,,,1,1,1,1,0,1,1,,1,0,1,,,1,1,,,,,,1,1,0,0,1,1
ũ,"back close rounded, nasalized",,,,1,1,1,0,0,1,1,,1,1,1,,,1,1,,,,,,1,1,0,0,1,1
ũː,"back close rounded, nasalized, long",,,,1,1,1,1,0,1,1,,1,1,1,,,1,1,,,,,,1,1,0,0,1,1
o,back close-mid rounded,,,,1,1,1,0,0,1,1,,1,0,1,,,1,1,,,,,,1,0,0,0,1,1
oː,"back close-mid rounded, long",,,,1,1,1,1,0,1,1,,1,0,1,,,1,1,,,,,,1,0,0,0,1,1
e,front close-mid unrounded,,,,1,1,1,0,0,1,1,,1,0,1,,,0,0,,,,,,1,0,0,1,0,1
eː,"front close-mid unrounded, long",,,,1,1,1,1,0,1,1,,1,0,1,,,0,0,,,,,,1,0,0,1,0,1
ĩ,"front closed unrounded, nasalized",,,,1,1,1,0,0,1,1,,1,1,1,,,0,0,,,,,,1,1,0,1,0,1
a,front open unrounded,,,,1,1,1,0,0,1,1,,1,0,1,,,0,0,,,,,,1,0,1,0,0,
aː,"front open unrounded, long",,,,1,1,1,1,0,1,1,,1,0,1,,,0,0,,,,,,1,0,1,0,0,
ɔ̃,"open-mid back rounded, nasalized",,,,1,1,1,0,0,1,1,,1,1,1,,,1,1,,,,,,1,0,0,0,1,0
ɔ̃ː,"open-mid back rounded, nasalized, long",,,,1,1,1,1,0,1,1,,1,1,1,,,1,1,,,,,,1,0,0,0,1,0
ɛ̃,"open-mid front unrounded, nasalized",,,,1,1,1,0,0,1,1,,1,1,1,,,0,0,,,,,,1,0,0,1,0,0
ɛ̃ː,"open-mid front unrounded, nasalized, long",,,,1,1,1,1,0,1,1,,1,1,1,,,0,0,,,,,,1,0,0,1,0,0
i,front closed unrounded,,,,1,1,1,0,0,1,1,,1,0,1,,,0,0,,,,,,1,1,0,1,0,1
ⁱ,"front closed unrounded, reduced",,,,1,1,0,0,0,1,1,,1,0,,,,0,0,,,,,,1,1,0,1,0,1
